…
1.  avoid relegation, and
2.  qualify for Champions League?

``` r
library(tidyverse)
```

We’ll be using [English Premier League
data](https://github.com/Cervus1983/EPL-data/blob/master/index.md):

``` r
epl
```

    ## # A tibble: 10,804 x 6
    ##    Season Date     HomeTeam         AwayTeam        FTHG  FTAG
    ##     <int> <chr>    <chr>            <chr>          <dbl> <dbl>
    ##  1   1993 14/08/93 Arsenal          Coventry           0     3
    ##  2   1993 14/08/93 Aston Villa      QPR                4     1
    ##  3   1993 14/08/93 Chelsea          Blackburn          1     2
    ##  4   1993 14/08/93 Liverpool        Sheffield Weds     2     0
    ##  5   1993 14/08/93 Man City         Leeds              1     1
    ##  6   1993 14/08/93 Newcastle        Tottenham          0     1
    ##  7   1993 14/08/93 Oldham           Ipswich            0     3
    ##  8   1993 14/08/93 Sheffield United Swindon            3     1
    ##  9   1993 14/08/93 Southampton      Everton            0     2
    ## 10   1993 14/08/93 West Ham         Wimbledon          0     2
    ## # ... with 10,794 more rows
…
Note that the first two seasons had 22 clubs competing, down to 20 from
1995 onwards, and we won’t include them in the analysis:

``` r
epl %>% 
    count(
        Season
    )
```

    ## # A tibble: 28 x 2
    ##    Season     n
    ##     <int> <int>
    ##  1   1993   462
    ##  2   1994   462
    ##  3   1995   380
    ##  4   1996   380
    ##  5   1997   380
    ##  6   1998   380
    ##  7   1999   380
    ##  8   2000   380
    ##  9   2001   380
    ## 10   2002   380
    ## # ... with 18 more rows
…
